{
    "current_page": 1,
    "data": [
        {
            "id": 1,
            "name": "Nolan-O'Connell",
            "logo": "https://picsum.photos/1024/1024?image=1083",
            "latitude": 44.24,
            "longitude": 3.69,
            "abus": 5,
            "skills": [
                {
                    "id": 11,
                    "name": "IOS"
                },
                {
                    "id": 10,
                    "name": "Windows"
                }
            ]
        },
        {
            "id": 2,
            "name": "Powlowski-Barrows",
            "logo": "https://picsum.photos/1024/1024?image=318",
            "latitude": 46.93,
            "longitude": 1.46,
            "abus": 3,
            "skills": [
                {
                    "id": 10,
                    "name": "Windows"
                },
                {
                    "id": 8,
                    "name": "MongoDb"
                }
            ]
        },
        {
            "id": 3,
            "name": "Shields, Sipes and Conroy",
            "logo": "https://picsum.photos/1024/1024?image=810",
            "latitude": 44.15,
            "longitude": 4.86,
            "abus": 2,
            "skills": [
                {
                    "id": 3,
                    "name": "Java"
                },
                {
                    "id": 10,
                    "name": "Windows"
                },
                {
                    "id": 13,
                    "name": "Ionic"
                },
                {
                    "id": 5,
                    "name": "Angular"
                },
                {
                    "id": 4,
                    "name": "HTML"
                },
                {
                    "id": 8,
                    "name": "MongoDb"
                }
            ]
        },
        {
            "id": 4,
            "name": "Huels Group",
            "logo": "https://picsum.photos/1024/1024?image=483",
            "latitude": 44.51,
            "longitude": 5.03,
            "abus": 0,
            "skills": [
                {
                    "id": 13,
                    "name": "Ionic"
                },
                {
                    "id": 11,
                    "name": "IOS"
                },
                {
                    "id": 13,
                    "name": "Ionic"
                }
            ]
        },
        {
            "id": 5,
            "name": "Hills, Hand and Moore",
            "logo": "https://picsum.photos/1024/1024?image=407",
            "latitude": 47.14,
            "longitude": 4.46,
            "abus": 0,
            "skills": [
                {
                    "id": 9,
                    "name": "FireBase"
                }
            ]
        },
        {
            "id": 6,
            "name": "Gleason, Prosacco and Legros",
            "logo": "https://picsum.photos/1024/1024?image=836",
            "latitude": 47.18,
            "longitude": 2.49,
            "abus": 0,
            "skills": [
                {
                    "id": 11,
                    "name": "IOS"
                },
                {
                    "id": 8,
                    "name": "MongoDb"
                },
                {
                    "id": 10,
                    "name": "Windows"
                },
                {
                    "id": 12,
                    "name": "Android"
                },
                {
                    "id": 5,
                    "name": "Angular"
                }
            ]
        },
        {
            "id": 7,
            "name": "Graham-Stehr",
            "logo": "https://picsum.photos/1024/1024?image=67",
            "latitude": 47.74,
            "longitude": -0.56,
            "abus": 0,
            "skills": [
                {
                    "id": 2,
                    "name": "Javascript"
                },
                {
                    "id": 7,
                    "name": "MySql"
                },
                {
                    "id": 1,
                    "name": "PHP"
                },
                {
                    "id": 9,
                    "name": "FireBase"
                },
                {
                    "id": 11,
                    "name": "IOS"
                }
            ]
        },
        {
            "id": 8,
            "name": "Barton-Rowe",
            "logo": "https://picsum.photos/1024/1024?image=960",
            "latitude": 45.78,
            "longitude": -0.75,
            "abus": 0,
            "skills": [
                {
                    "id": 3,
                    "name": "Java"
                },
                {
                    "id": 10,
                    "name": "Windows"
                }
            ]
        },
        {
            "id": 9,
            "name": "Rau, Schaden and Mills",
            "logo": "https://picsum.photos/1024/1024?image=345",
            "latitude": 45.55,
            "longitude": 1.3900000000000001,
            "abus": 0,
            "skills": [
                {
                    "id": 10,
                    "name": "Windows"
                },
                {
                    "id": 3,
                    "name": "Java"
                }
            ]
        },
        {
            "id": 10,
            "name": "Gleichner-Kling",
            "logo": "https://picsum.photos/1024/1024?image=559",
            "latitude": 47.52,
            "longitude": 5.06,
            "abus": 0,
            "skills": [
                {
                    "id": 2,
                    "name": "Javascript"
                },
                {
                    "id": 12,
                    "name": "Android"
                }
            ]
        },
        {
            "id": 11,
            "name": "O'Hara-Daniel",
            "logo": "https://picsum.photos/1024/1024?image=726",
            "latitude": 44.3,
            "longitude": 5.13,
            "abus": 0,
            "skills": [
                {
                    "id": 5,
                    "name": "Angular"
                },
                {
                    "id": 6,
                    "name": "React"
                },
                {
                    "id": 3,
                    "name": "Java"
                },
                {
                    "id": 5,
                    "name": "Angular"
                }
            ]
        },
        {
            "id": 12,
            "name": "Armstrong, Wunsch and Hayes",
            "logo": "https://picsum.photos/1024/1024?image=862",
            "latitude": 45.64,
            "longitude": 4.42,
            "abus": 0,
            "skills": [
                {
                    "id": 4,
                    "name": "HTML"
                },
                {
                    "id": 10,
                    "name": "Windows"
                },
                {
                    "id": 10,
                    "name": "Windows"
                }
            ]
        },
        {
            "id": 13,
            "name": "Wuckert-Hayes",
            "logo": "https://picsum.photos/1024/1024?image=85",
            "latitude": 45.98,
            "longitude": -0.76,
            "abus": 0,
            "skills": [
                {
                    "id": 7,
                    "name": "MySql"
                }
            ]
        },
        {
            "id": 14,
            "name": "Gutmann, Herzog and Baumbach",
            "logo": "https://picsum.photos/1024/1024?image=249",
            "latitude": 45.28,
            "longitude": 2.37,
            "abus": 0,
            "skills": [
                {
                    "id": 12,
                    "name": "Android"
                },
                {
                    "id": 3,
                    "name": "Java"
                }
            ]
        },
        {
            "id": 15,
            "name": "Rodriguez, Stoltenberg and Beatty",
            "logo": "https://picsum.photos/1024/1024?image=494",
            "latitude": 44.3,
            "longitude": -0.17000000000000004,
            "abus": 0,
            "skills": [
                {
                    "id": 11,
                    "name": "IOS"
                },
                {
                    "id": 1,
                    "name": "PHP"
                }
            ]
        },
        {
            "id": 16,
            "name": "Beahan-Gorczany",
            "logo": "https://picsum.photos/1024/1024?image=251",
            "latitude": 44.88,
            "longitude": 0.96,
            "abus": 0,
            "skills": [
                {
                    "id": 7,
                    "name": "MySql"
                },
                {
                    "id": 2,
                    "name": "Javascript"
                }
            ]
        },
        {
            "id": 17,
            "name": "Reichel Group",
            "logo": "https://picsum.photos/1024/1024?image=373",
            "latitude": 47.82,
            "longitude": 4.6,
            "abus": 0,
            "skills": []
        },
        {
            "id": 18,
            "name": "Paucek, Smitham and Grimes",
            "logo": "https://picsum.photos/1024/1024?image=845",
            "latitude": 45.77,
            "longitude": 4.12,
            "abus": 0,
            "skills": [
                {
                    "id": 9,
                    "name": "FireBase"
                },
                {
                    "id": 1,
                    "name": "PHP"
                }
            ]
        },
        {
            "id": 19,
            "name": "Morissette-Donnelly",
            "logo": "https://picsum.photos/1024/1024?image=481",
            "latitude": 47.65,
            "longitude": 1.15,
            "abus": 0,
            "skills": [
                {
                    "id": 12,
                    "name": "Android"
                },
                {
                    "id": 1,
                    "name": "PHP"
                },
                {
                    "id": 4,
                    "name": "HTML"
                },
                {
                    "id": 5,
                    "name": "Angular"
                }
            ]
        },
        {
            "id": 20,
            "name": "Kuhic, Rau and Prohaska",
            "logo": "https://picsum.photos/1024/1024?image=810",
            "latitude": 45.56,
            "longitude": 4.77,
            "abus": 0,
            "skills": [
                {
                    "id": 9,
                    "name": "FireBase"
                },
                {
                    "id": 9,
                    "name": "FireBase"
                },
                {
                    "id": 6,
                    "name": "React"
                },
                {
                    "id": 13,
                    "name": "Ionic"
                }
            ]
        },
        {
            "id": 21,
            "name": "Rutherford and Sons",
            "logo": "https://picsum.photos/1024/1024?image=706",
            "latitude": 45.74,
            "longitude": 1.8399999999999999,
            "abus": 0,
            "skills": [
                {
                    "id": 7,
                    "name": "MySql"
                },
                {
                    "id": 12,
                    "name": "Android"
                }
            ]
        },
        {
            "id": 22,
            "name": "Ebert, Cartwright and VonRueden",
            "logo": "https://picsum.photos/1024/1024?image=348",
            "latitude": 47.23,
            "longitude": 4.58,
            "abus": 0,
            "skills": [
                {
                    "id": 8,
                    "name": "MongoDb"
                },
                {
                    "id": 2,
                    "name": "Javascript"
                },
                {
                    "id": 12,
                    "name": "Android"
                },
                {
                    "id": 12,
                    "name": "Android"
                }
            ]
        },
        {
            "id": 23,
            "name": "Pouros, Bartell and Gislason",
            "logo": "https://picsum.photos/1024/1024?image=1005",
            "latitude": 45.44,
            "longitude": 0.7,
            "abus": 0,
            "skills": [
                {
                    "id": 3,
                    "name": "Java"
                },
                {
                    "id": 4,
                    "name": "HTML"
                },
                {
                    "id": 1,
                    "name": "PHP"
                }
            ]
        },
        {
            "id": 24,
            "name": "Wiza-Labadie",
            "logo": "https://picsum.photos/1024/1024?image=205",
            "latitude": 44.68,
            "longitude": 2.02,
            "abus": 0,
            "skills": [
                {
                    "id": 11,
                    "name": "IOS"
                },
                {
                    "id": 4,
                    "name": "HTML"
                }
            ]
        },
        {
            "id": 25,
            "name": "Herzog PLC",
            "logo": "https://picsum.photos/1024/1024?image=113",
            "latitude": 46.25,
            "longitude": 5.82,
            "abus": 1,
            "skills": [
                {
                    "id": 5,
                    "name": "Angular"
                },
                {
                    "id": 13,
                    "name": "Ionic"
                },
                {
                    "id": 10,
                    "name": "Windows"
                },
                {
                    "id": 2,
                    "name": "Javascript"
                }
            ]
        }
    ],
    "first_page_url": "http://tccdirectory.1click.pf/api/businesses?page=1",
    "from": 1,
    "last_page": 2,
    "last_page_url": "http://tccdirectory.1click.pf/api/businesses?page=2",
    "next_page_url": "http://tccdirectory.1click.pf/api/businesses?page=2",
    "path": "http://tccdirectory.1click.pf/api/businesses",
    "per_page": 25,
    "prev_page_url": null,
    "to": 25,
    "total": 50
}